<?xml version="1.0" standalone="no"?>
<!DOCTYPE svg PUBLIC "-//W3C//DTD SVG 20010904//EN"
 "http://www.w3.org/TR/2001/REC-SVG-20010904/DTD/svg10.dtd">
<svg version="1.0" xmlns="http://www.w3.org/2000/svg"
 width="57.000000pt" height="69.000000pt" viewBox="0 0 57.000000 69.000000"
 preserveAspectRatio="xMidYMid meet">
<metadata>
Created by potrace 1.16, written by Peter Selinger 2001-2019
</metadata>
<g transform="translate(0.000000,69.000000) scale(0.100000,-0.100000)"
fill="#000000" stroke="none">
<path d="M192 661 c-135 -47 -212 -205 -167 -342 15 -45 37 -73 128 -166 61
-62 105 -113 99 -113 -7 0 -12 -7 -12 -15 0 -18 40 -29 69 -20 22 7 29 35 9
35 -6 0 38 51 99 113 91 93 113 121 128 166 46 140 -37 304 -176 345 -68 21
-111 20 -177 -3z m203 -20 c89 -39 148 -132 149 -236 1 -73 -23 -127 -90 -203
l-46 -52 -122 0 -122 0 -31 33 c-92 97 -123 177 -103 270 35 169 206 257 365
188z"/>
</g>
</svg>
